<?xml version="1.0" encoding="iso-8859-1"?>
<!-- Generator: Adobe Illustrator 19.0.0, SVG Export Plug-In . SVG Version: 6.00 Build 0)  -->
<svg version="1.1" id="Capa_1" xmlns="http://www.w3.org/2000/svg" xmlns:xlink="http://www.w3.org/1999/xlink" x="0px" y="0px"
	 viewBox="0 0 512 512" style="enable-background:new 0 0 512 512;" xml:space="preserve">
<path style="fill:#88A5A0;" d="M351.569,486.503H160.432c-7.714,0-11.037-9.808-4.894-14.481
	c14.985-11.379,24.793-25.599,31.198-39.234c11.702-24.854,12.105-47.713,12.105-47.713H313.16c0,0,0.403,22.86,12.105,47.713
	c6.405,13.635,16.213,27.855,31.198,39.234C362.606,476.694,359.283,486.503,351.569,486.503z"/>
<path style="fill:#718987;" d="M321.214,423.135c-7.746-20.817-8.054-38.061-8.054-38.061H198.841c0,0-0.309,17.245-8.054,38.061
	H321.214z"/>
<path style="fill:#DCF9F7;" d="M511.99,63.439v277.139H0V63.439c0-20.964,16.977-37.942,37.921-37.942h436.148
	C495.012,25.498,511.99,42.475,511.99,63.439z"/>
<path style="fill:#FF6A66;" d="M304.764,25.5v191.753H0V63.437C0,42.485,16.985,25.5,37.937,25.5H304.764z"/>
<g>
	<rect x="297.03" y="25.498" style="fill:#B0D1CF;" width="15.453" height="315.08"/>
	<rect y="317.891" style="fill:#B0D1CF;" width="511.99" height="22.684"/>
</g>
<path style="fill:#88A5A0;" d="M495.216,404.59H16.785c-9.27,0-16.784-7.514-16.784-16.784v-54.15H512v54.15
	C512,397.076,504.486,404.59,495.216,404.59z"/>
<circle style="fill:#FF6A66;" cx="256" cy="369.12" r="11.51"/>
<path style="fill:#DCF9F7;" d="M126.304,97.3v31.715c0,5.251,5.518,8.672,10.221,6.337l31.946-15.858
	c5.239-2.601,5.239-10.074,0-12.675l-31.946-15.858C131.822,88.628,126.304,92.049,126.304,97.3z"/>
<path style="fill:#5089DD;" d="M385.281,109.803h-32.954c-3.689,0-6.68-2.991-6.68-6.68V70.169c0-3.689,2.991-6.68,6.68-6.68h32.954
	c3.689,0,6.68,2.991,6.68,6.68v32.954C391.961,106.812,388.97,109.803,385.281,109.803z"/>
<g>
	<path style="fill:#B0D1CF;" d="M436.66,69.598h-16.138c-4.268,0-7.726-3.459-7.726-7.726s3.459-7.726,7.726-7.726h16.138
		c4.268,0,7.726,3.459,7.726,7.726S440.928,69.598,436.66,69.598z"/>
	<path style="fill:#B0D1CF;" d="M468.194,97.528h-47.672c-4.268,0-7.726-3.459-7.726-7.726s3.459-7.726,7.726-7.726h47.672
		c4.268,0,7.726,3.459,7.726,7.726C475.921,94.069,472.462,97.528,468.194,97.528z"/>
	<path style="fill:#B0D1CF;" d="M468.194,116.478h-47.672c-4.268,0-7.726-3.459-7.726-7.726s3.459-7.726,7.726-7.726h47.672
		c4.268,0,7.726,3.459,7.726,7.726C475.921,113.018,472.462,116.478,468.194,116.478z"/>
</g>
<path style="fill:#5089DD;" d="M385.281,204.3h-32.954c-3.689,0-6.68-2.991-6.68-6.68v-32.954c0-3.689,2.991-6.68,6.68-6.68h32.954
	c3.689,0,6.68,2.991,6.68,6.68v32.954C391.961,201.309,388.97,204.3,385.281,204.3z"/>
<g>
	<path style="fill:#B0D1CF;" d="M436.66,164.095h-16.138c-4.268,0-7.726-3.459-7.726-7.726s3.459-7.726,7.726-7.726h16.138
		c4.268,0,7.726,3.459,7.726,7.726C444.386,160.636,440.928,164.095,436.66,164.095z"/>
	<path style="fill:#B0D1CF;" d="M468.194,192.025h-47.672c-4.268,0-7.726-3.459-7.726-7.726s3.459-7.726,7.726-7.726h47.672
		c4.268,0,7.726,3.459,7.726,7.726S472.462,192.025,468.194,192.025z"/>
	<path style="fill:#B0D1CF;" d="M468.194,210.975h-47.672c-4.268,0-7.726-3.459-7.726-7.726s3.459-7.726,7.726-7.726h47.672
		c4.268,0,7.726,3.459,7.726,7.726C475.921,207.515,472.462,210.975,468.194,210.975z"/>
</g>
<path style="fill:#5089DD;" d="M385.281,298.797h-32.954c-3.689,0-6.68-2.991-6.68-6.68v-32.954c0-3.689,2.991-6.68,6.68-6.68
	h32.954c3.689,0,6.68,2.991,6.68,6.68v32.954C391.961,295.806,388.97,298.797,385.281,298.797z"/>
<g>
	<path style="fill:#B0D1CF;" d="M436.66,258.592h-16.138c-4.268,0-7.726-3.459-7.726-7.726s3.459-7.726,7.726-7.726h16.138
		c4.268,0,7.726,3.459,7.726,7.726C444.386,255.133,440.928,258.592,436.66,258.592z"/>
	<path style="fill:#B0D1CF;" d="M468.194,286.522h-47.672c-4.268,0-7.726-3.459-7.726-7.726s3.459-7.726,7.726-7.726h47.672
		c4.268,0,7.726,3.459,7.726,7.726C475.921,283.063,472.462,286.522,468.194,286.522z"/>
	<path style="fill:#B0D1CF;" d="M468.194,305.472h-47.672c-4.268,0-7.726-3.459-7.726-7.726s3.459-7.726,7.726-7.726h47.672
		c4.268,0,7.726,3.459,7.726,7.726C475.921,302.012,472.462,305.472,468.194,305.472z"/>
</g>
<g>
	<path style="fill:#FF6A66;" d="M272.46,259.632h-21.741c-4.268,0-7.726-3.459-7.726-7.726c0-4.267,3.459-7.726,7.726-7.726h21.741
		c4.268,0,7.726,3.459,7.726,7.726C280.186,256.171,276.727,259.632,272.46,259.632z"/>
	<path style="fill:#FF6A66;" d="M272.46,299.816h-21.741c-4.268,0-7.726-3.459-7.726-7.726s3.459-7.726,7.726-7.726h21.741
		c4.268,0,7.726,3.459,7.726,7.726C280.186,296.356,276.727,299.816,272.46,299.816z"/>
</g>
<g>
	<path style="fill:#B0D1CF;" d="M190.787,259.632H36.307c-4.268,0-7.726-3.459-7.726-7.726c0-4.267,3.459-7.726,7.726-7.726h154.48
		c4.268,0,7.726,3.459,7.726,7.726C198.513,256.171,195.054,259.632,190.787,259.632z"/>
	<path style="fill:#B0D1CF;" d="M67.97,284.895H36.307c-4.268,0-7.726-3.459-7.726-7.726s3.459-7.726,7.726-7.726H67.97
		c4.268,0,7.726,3.459,7.726,7.726C75.696,281.434,72.237,284.895,67.97,284.895z"/>
	<path style="fill:#B0D1CF;" d="M67.97,310.128H36.307c-4.268,0-7.726-3.459-7.726-7.726s3.459-7.726,7.726-7.726H67.97
		c4.268,0,7.726,3.459,7.726,7.726C75.696,306.667,72.237,310.128,67.97,310.128z"/>
</g>
<g>
</g>
<g>
</g>
<g>
</g>
<g>
</g>
<g>
</g>
<g>
</g>
<g>
</g>
<g>
</g>
<g>
</g>
<g>
</g>
<g>
</g>
<g>
</g>
<g>
</g>
<g>
</g>
<g>
</g>
</svg>
